Getting My Colleagues Hooked on R
…
beepr to play notification sounds. Helpful when performing time consuming tasks.

Introduction to dplyr

Well use the iris dataset provided in base R. Check library(help = "datasets") for many more base R datasets.

iris <-
  iris %>%
  as_tibble() %>%
  clean_names()

iris

# A tibble: 150 x 5
   sepal_length sepal_width petal_length petal_width species
          <dbl>       <dbl>        <dbl>       <dbl> <fct>  
 1          5.1         3.5          1.4         0.2 setosa 
 2          4.9         3            1.4         0.2 setosa 
 3          4.7         3.2          1.3         0.2 setosa 
 4          4.6         3.1          1.5         0.2 setosa 
 5          5           3.6          1.4         0.2 setosa 
 6          5.4         3.9          1.7         0.4 setosa 
 7          4.6         3.4          1.4         0.3 setosa 
 8          5           3.4          1.5         0.2 setosa 
 9          4.4         2.9          1.4         0.2 setosa 
10          4.9         3.1          1.5         0.1 setosa 
# ... with 140 more rows
…
iris %>%
  filter(sepal_length < 4.5)

# A tibble: 4 x 5
  sepal_length sepal_width petal_length petal_width species
         <dbl>       <dbl>        <dbl>       <dbl> <fct>  
1          4.4         2.9          1.4         0.2 setosa 
2          4.3         3            1.1         0.1 setosa 
3          4.4         3            1.3         0.2 setosa 
4          4.4         3.2          1.3         0.2 setosa 

iris %>%
  arrange(desc(petal_width))

# A tibble: 150 x 5
   sepal_length sepal_width petal_length petal_width species  
          <dbl>       <dbl>        <dbl>       <dbl> <fct>    
 1          6.3         3.3          6           2.5 virginica
 2          7.2         3.6          6.1         2.5 virginica
 3          6.7         3.3          5.7         2.5 virginica
 4          5.8         2.8          5.1         2.4 virginica
 5          6.3         3.4          5.6         2.4 virginica
 6          6.7         3.1          5.6         2.4 virginica
 7          6.4         3.2          5.3         2.3 virginica
 8          7.7         2.6          6.9         2.3 virginica
 9          6.9         3.2          5.7         2.3 virginica
10          7.7         3            6.1         2.3 virginica
# ... with 140 more rows
…
# A tibble: 3 x 2
  species        n
  <fct>      <int>
1 setosa        50
2 versicolor    50
3 virginica     50

iris %>%
  mutate(
    sepal_length_sqr = sepal_length^2,
    sepal_width = round(sepal_width)
  )

# A tibble: 150 x 6
   sepal_length sepal_width petal_length petal_width species sepal_length_sqr
          <dbl>       <dbl>        <dbl>       <dbl> <fct>              <dbl>
 1          5.1           4          1.4         0.2 setosa              26.0
 2          4.9           3          1.4         0.2 setosa              24.0
 3          4.7           3          1.3         0.2 setosa              22.1
 4          4.6           3          1.5         0.2 setosa              21.2
 5          5             4          1.4         0.2 setosa              25  
 6          5.4           4          1.7         0.4 setosa              29.2
 7          4.6           3          1.4         0.3 setosa              21.2
 8          5             3          1.5         0.2 setosa              25  
 9          4.4           3          1.4         0.2 setosa              19.4
10          4.9           3          1.5         0.1 setosa              24.0
# ... with 140 more rows
…
[142 rows x 6 columns]

gapminder %>% 
  filter(year == 2007)

# A tibble: 142 x 6
   country     continent  year lifeExp       pop gdpPercap
   <fct>       <fct>     <int>   <dbl>     <int>     <dbl>
 1 Afghanistan Asia       2007    43.8  31889923      975.
 2 Albania     Europe     2007    76.4   3600523     5937.
 3 Algeria     Africa     2007    72.3  33333216     6223.
 4 Angola      Africa     2007    42.7  12420476     4797.
 5 Argentina   Americas   2007    75.3  40301927    12779.
 6 Australia   Oceania    2007    81.2  20434176    34435.
 7 Austria     Europe     2007    79.8   8199783    36126.
 8 Bahrain     Asia       2007    75.6    708573    29796.
 9 Bangladesh  Asia       2007    64.1 150448339     1391.
10 Belgium     Europe     2007    79.4  10392226    33693.
# ... with 132 more rows
…
